%YAML 1.1
%TAG !u! tag:unity3d.com,2011:
--- !u!114 &11400000
MonoBehaviour:
  m_ObjectHideFlags: 0
  m_PrefabParentObject: {fileID: 0}
  m_PrefabInternal: {fileID: 0}
  m_GameObject: {fileID: 0}
  m_Enabled: 1
  m_EditorHideFlags: 0
  m_Script: {fileID: 11500000, guid: 17770b271a8342846bf8952205a1f313, type: 3}
  m_Name: EnvironmentSetting Mars Giess_Facetten
  m_EditorClassIdentifier: 
  assetValueMap:
  - asset: {fileID: 1596579504920718, guid: 5c7154078d72d144fb40aed738f9de16, type: 2}
    assetValue: 0.6
  - asset: {fileID: 1167057541047278, guid: 7881c42b9f1cc594d8e35cbec80b4a2b, type: 2}
    assetValue: 0.6
  - asset: {fileID: 1050776890378336, guid: 4e3e7c6127e6c9443abcfd4abd3976d1, type: 2}
    assetValue: 1
  - asset: {fileID: 1619063714728800, guid: af3b70f5aac145f40b6c30035b56fd44, type: 2}
    assetValue: 1
  - asset: {fileID: 1765820786705202, guid: e4978c8d595e8864c9273b11573eb708, type: 2}
    assetValue: 0.3
  - asset: {fileID: 1213198826585160, guid: dc4aa33c9008bc041bbad3f91f1d6b82, type: 2}
    assetValue: 0
  - asset: {fileID: 1698819134391564, guid: 491ca249b166e9445bb0c3170a596302, type: 2}
    assetValue: 0.6
  - asset: {fileID: 1521287957725180, guid: 48c697cfd95dede4c81010dd1ce56662, type: 2}
    assetValue: 1
  - asset: {fileID: 1008447118149974, guid: 6de0e95e48c7d864084deebf42dcf000, type: 2}
    assetValue: 0.6
  - asset: {fileID: 1705066330609842, guid: dad43e51b29aea5478eaedb1af44a9dc, type: 2}
    assetValue: 0.6
  - asset: {fileID: 1649551427146640, guid: 5745d2106ec9ae448a46092884f1f049, type: 2}
    assetValue: 1
  - asset: {fileID: 1849166303048944, guid: 046fcd08e324b2b4491801992f4b894f, type: 2}
    assetValue: 0
  - asset: {fileID: 1723464766420568, guid: 0abb0f68501e76447afd0b80cfa6f3b1, type: 2}
    assetValue: 0
  - asset: {fileID: 1483621397731520, guid: 55a43e2ede76805448783b067f99b3f0, type: 2}
    assetValue: 0
  - asset: {fileID: 1717080860452122, guid: 50c9ba5ce4a4d4f45bcddcedd105ab55, type: 2}
    assetValue: 0
  - asset: {fileID: 1207850846954976, guid: 2b42c8a45d5df224d80c2bc8fe35bcc5, type: 2}
    assetValue: 1
  - asset: {fileID: 1884492301622380, guid: 6c1bbd9b0b9283f4a99871d160da3c6a, type: 2}
    assetValue: 0
  - asset: {fileID: 1412115325349982, guid: 73318679a05655145bc58ee78e65d698, type: 2}
    assetValue: 0
  bgColor: {r: 1, g: 0.28676468, b: 0.74421906, a: 1}
  bgImage: {fileID: 21300000, guid: 7646f6f0a034e7e4989ede852f441ec4, type: 3}
